{
	"type": "crafting_shaped",
	"pattern": [
		"p p",
		"p p",
		"psp"
	],
	"key": {
		"p": { "tag": "lits_ender:planks/jungle_ish" },
		"s": { "tag": "lits_ender:wooden_slabs/jungle_ish" }
	},
	"result": {
		"item": "exnihilosequentia:jungle_barrel"
	}
}
