{
	"type": "minecraft:advancement_reward",
	"pools": [{
		"rolls": 1,
		"entries": [
			{
				"type": "minecraft:item",
				"name": "draconicevolution:draconic_energy_module",
				"weight": 15
			},
			{
				"type": "minecraft:item",
				"name": "draconicevolution:draconic_speed_module",
				"weight": 8
			},
			{
				"type": "minecraft:item",
				"name": "draconicevolution:draconic_damage_module",
				"weight": 10
			},
			{
				"type": "minecraft:item",
				"name": "draconicevolution:draconic_aoe_module",
				"weight": 2
			},
			{
				"type": "minecraft:item",
				"name": "draconicevolution:draconic_proj_velocity_module",
				"weight": 8
			},
			{
				"type": "minecraft:item",
				"name": "draconicevolution:draconic_proj_accuracy_module",
				"weight": 5
			},
			{
				"type": "minecraft:item",
				"name": "draconicevolution:draconic_proj_grav_comp_module",
				"weight": 5
			},
			{
				"type": "minecraft:item",
				"name": "draconicevolution:draconic_proj_damage_module",
				"weight": 10
			},
			{
				"type": "minecraft:item",
				"name": "draconicevolution:draconic_proj_penetration_module",
				"weight": 1
			},
			{
				"type": "minecraft:item",
				"name": "draconicevolution:draconic_proj_anti_immune_module",
				"weight": 5
			},
			{
				"type": "minecraft:item",
				"name": "draconicevolution:draconic_shield_capacity_module",
				"weight": 10
			},
			{
				"type": "minecraft:item",
				"name": "draconicevolution:draconic_large_shield_capacity_module",
				"weight": 5
			},
			{
				"type": "minecraft:item",
				"name": "draconicevolution:draconic_shield_recovery_module",
				"weight": 10
			},
			{
				"type": "minecraft:item",
				"name": "draconicevolution:draconic_flight_module",
				"weight": 2
			},
			{
				"type": "minecraft:item",
				"name": "draconicevolution:draconic_undying_module",
				"weight": 2
			},
			{
				"type": "minecraft:item",
				"name": "draconicevolution:draconic_auto_feed_module",
				"weight": 1
			},
			{
				"type": "minecraft:item",
				"name": "draconicevolution:draconic_jump_module",
				"weight": 1
			}
		]
	}]
}
