{
	"type": "crafting_shaped",
	"pattern": [
		"psp",
		"sps",
		"psp"
	],
	"key": {
		"p": { "tag": "lits_ender:planks/jungle_ish" },
		"s": { "item": "minecraft:stick" }
	},
	"result": {
		"item": "storagedrawers:jungle_trim"
	}
}
