{
	"type": "crafting_shaped",
	"pattern": [
		"ngn",
		"iri"
	],
	"key": {
		"r": { "tag": "forge:dusts/redstone" },
		"i": { "tag": "forge:ingots/enderium" },
		"n": { "tag": "forge:nuggets/iron" },
		"g": { "tag": "forge:glass" }
	},
	"result": {
		"item": "pipez:advanced_upgrade"
	}
}
