{
	"type": "thermal:insolator",
	"ingredient": {
		"item": "thermal:glowstone_mushroom_spores"
	},
	"result": [
		{
			"item": "minecraft:glowstone_dust",
			"chance": 1.0
		},
		{
			"item": "thermal:glowstone_mushroom_spores",
			"chance": 1.0
		}
	]
}
