{
	"parent": "lits:end/chaos_dragon",
	"display": {
		"icon": { "item": "draconicevolution:reactor_core" },
		"title": { "translate": "advancements.lits.end.draconic_reactor.title" },
		"description": {
			"translate": "advancements.lits.end.draconic_reactor.description",
			"extra": [{
				"translate": "advancements.lits.end.draconic_reactor.note",
				"color": "#777777"
			}]
		},
		"frame": "challenge"
	},
	"criteria": {
		"core": {
			"trigger": "minecraft:inventory_changed",
			"conditions": {
				"items": [{
					"item": "draconicevolution:reactor_core"
				}]
			}
		},
		"stabilizer": {
			"trigger": "minecraft:inventory_changed",
			"conditions": {
				"items": [{
					"item": "draconicevolution:reactor_stabilizer",
					"count": 4
				}]
			}
		},
		"injector": {
			"trigger": "minecraft:inventory_changed",
			"conditions": {
				"items": [{
					"item": "draconicevolution:reactor_injector"
				}]
			}
		}
	}
}
