{
	"parent": "lits:end/wyvern_core",
	"display": {
		"icon": { "item": "draconicevolution:draconium_chest" },
		"title": { "translate": "advancements.lits.end.draconium_chest.title" },
		"description": { "translate": "advancements.lits.end.draconium_chest.description" }
	},
	"criteria": {
		"item": {
			"trigger": "minecraft:inventory_changed",
			"conditions": {
				"items": [{
					"item": "draconicevolution:draconium_chest"
				}]
			}
		}
	},
	"rewards": {
		"loot": [ "lits:modules" ]
	}
}
