{
	"parent": "lits:end/root",
	"display": {
		"icon": { "item": "minecraft:dragon_head" },
		"title": { "translate": "advancements.lits.end.ender_dragon.title" },
		"description": { "translate": "advancements.lits.end.ender_dragon.description" }
	},
	"criteria": {
		"dragon": {
			"trigger": "minecraft:player_killed_entity",
			"conditions": {
				"entity": [{
					"condition": "minecraft:entity_properties",
					"predicate": {
						"type": "minecraft:ender_dragon"
					},
					"entity": "this"
				}]
			}
		}
	},
	"rewards": {
		"loot": [ "lits:modules" ]
	}
}
