{
	"parent": "lits:end/ender_dragon",
	"display": {
		"icon": { "item": "betterendforge:twisted_moss" },
		"title": { "translate": "advancements.lits.end.new_biome.title" },
		"description": {
			"translate": "advancements.lits.end.new_biome.description",
			"extra": [{
				"translate": "advancements.lits.end.new_biome.note",
				"color": "#777777"
			},
			{
				"translate": "advancements.lits.end.new_biome.description2"
			},
			{
				"translate": "advancements.lits.end.new_biome.note2",
				"color": "#777777"
			}]
		}
	},
	"rewards": {
		"loot": [ "lits:modules" ]
	},
	"criteria": {
		"nether_from_end": {
			"trigger": "minecraft:tick",
			"conditions": { 
				"player": { 
					"player": { "advancements": { 
						"lits:technical/start_in_end": true 
					}}, 
					"location": {
						"dimension": "minecraft:the_nether"
					}
				}
			}
		},
		"betterendforge:amber_land": {
			"trigger": "minecraft:tick",
			"conditions": { "player": { "player": { "advancements": { "lits:technical/start_in_overworld": true }}, 
				"location": {
					"biome": "betterendforge:amber_land"
				}}
			}
		},
		"betterendforge:blossoming_spires": {
			"trigger": "minecraft:tick",
			"conditions": { "player": { "player": { "advancements": { "lits:technical/start_in_overworld": true }}, 
				"location": {
					"biome": "betterendforge:blossoming_spires"
				}}
			}
		},
		"betterendforge:chorus_forest": {
			"trigger": "minecraft:tick",
			"conditions": { "player": { "player": { "advancements": { "lits:technical/start_in_overworld": true }}, 
				"location": {
					"biome": "betterendforge:chorus_forest"
				}}
			}
		},
		"betterendforge:crystal_mountains": {
			"trigger": "minecraft:tick",
			"conditions": { "player": { "player": { "advancements": { "lits:technical/start_in_overworld": true }}, 
				"location": {
					"biome": "betterendforge:crystal_mountains"
				}}
			}
		},
		"betterendforge:dragon_graveyards": {
			"trigger": "minecraft:tick",
			"conditions": { "player": { "player": { "advancements": { "lits:technical/start_in_overworld": true }}, 
				"location": {
					"biome": "betterendforge:dragon_graveyards"
				}}
			}
		},
		"betterendforge:dry_shrubland": {
			"trigger": "minecraft:tick",
			"conditions": { "player": { "player": { "advancements": { "lits:technical/start_in_overworld": true }}, 
				"location": {
					"biome": "betterendforge:dry_shrubland"
				}}
			}
		},
		"betterendforge:dust_wastelands": {
			"trigger": "minecraft:tick",
			"conditions": { "player": { "player": { "advancements": { "lits:technical/start_in_overworld": true }}, 
				"location": {
					"biome": "betterendforge:dust_wastelands"
				}}
			}
		},
		"betterendforge:empty_aurora_cave": {
			"trigger": "minecraft:tick",
			"conditions": { "player": { "player": { "advancements": { "lits:technical/start_in_overworld": true }}, 
				"location": {
					"biome": "betterendforge:empty_aurora_cave"
				}}
			}
		},
		"betterendforge:empty_end_cave": {
			"trigger": "minecraft:tick",
			"conditions": { "player": { "player": { "advancements": { "lits:technical/start_in_overworld": true }}, 
				"location": {
					"biome": "betterendforge:empty_end_cave"
				}}
			}
		},
		"betterendforge:empty_smaragdant_cave": {
			"trigger": "minecraft:tick",
			"conditions": { "player": { "player": { "advancements": { "lits:technical/start_in_overworld": true }}, 
				"location": {
					"biome": "betterendforge:empty_smaragdant_cave"
				}}
			}
		},
		"betterendforge:end_cave": {
			"trigger": "minecraft:tick",
			"conditions": { "player": { "player": { "advancements": { "lits:technical/start_in_overworld": true }}, 
				"location": {
					"biome": "betterendforge:end_cave"
				}}
			}
		},
		"betterendforge:foggy_mushroomland": {
			"trigger": "minecraft:tick",
			"conditions": { "player": { "player": { "advancements": { "lits:technical/start_in_overworld": true }}, 
				"location": {
					"biome": "betterendforge:foggy_mushroomland"
				}}
			}
		},
		"betterendforge:glowing_grasslands": {
			"trigger": "minecraft:tick",
			"conditions": { "player": { "player": { "advancements": { "lits:technical/start_in_overworld": true }}, 
				"location": {
					"biome": "betterendforge:glowing_grasslands"
				}}
			}
		},
		"betterendforge:ice_starfield": {
			"trigger": "minecraft:tick",
			"conditions": { "player": { "player": { "advancements": { "lits:technical/start_in_overworld": true }}, 
				"location": {
					"biome": "betterendforge:ice_starfield"
				}}
			}
		},
		"betterendforge:jade_cave": {
			"trigger": "minecraft:tick",
			"conditions": { "player": { "player": { "advancements": { "lits:technical/start_in_overworld": true }}, 
				"location": {
					"biome": "betterendforge:jade_cave"
				}}
			}
		},
		"betterendforge:lantern_woods": {
			"trigger": "minecraft:tick",
			"conditions": { "player": { "player": { "advancements": { "lits:technical/start_in_overworld": true }}, 
				"location": {
					"biome": "betterendforge:lantern_woods"
				}}
			}
		},
		"betterendforge:lush_aurora_cave": {
			"trigger": "minecraft:tick",
			"conditions": { "player": { "player": { "advancements": { "lits:technical/start_in_overworld": true }}, 
				"location": {
					"biome": "betterendforge:lush_aurora_cave"
				}}
			}
		},
		"betterendforge:lush_smaragdant_cave": {
			"trigger": "minecraft:tick",
			"conditions": { "player": { "player": { "advancements": { "lits:technical/start_in_overworld": true }}, 
				"location": {
					"biome": "betterendforge:lush_smaragdant_cave"
				}}
			}
		},
		"betterendforge:megalake": {
			"trigger": "minecraft:tick",
			"conditions": { "player": { "player": { "advancements": { "lits:technical/start_in_overworld": true }}, 
				"location": {
					"biome": "betterendforge:megalake"
				}}
			}
		},
		"betterendforge:megalake_grove": {
			"trigger": "minecraft:tick",
			"conditions": { "player": { "player": { "advancements": { "lits:technical/start_in_overworld": true }}, 
				"location": {
					"biome": "betterendforge:megalake_grove"
				}}
			}
		},
		"betterendforge:neon_oasis": {
			"trigger": "minecraft:tick",
			"conditions": { "player": { "player": { "advancements": { "lits:technical/start_in_overworld": true }}, 
				"location": {
					"biome": "betterendforge:neon_oasis"
				}}
			}
		},
		"betterendforge:painted_mountains": {
			"trigger": "minecraft:tick",
			"conditions": { "player": { "player": { "advancements": { "lits:technical/start_in_overworld": true }}, 
				"location": {
					"biome": "betterendforge:painted_mountains"
				}}
			}
		},
		"betterendforge:shadow_forest": {
			"trigger": "minecraft:tick",
			"conditions": { "player": { "player": { "advancements": { "lits:technical/start_in_overworld": true }}, 
				"location": {
					"biome": "betterendforge:shadow_forest"
				}}
			}
		},
		"betterendforge:sulphur_springs": {
			"trigger": "minecraft:tick",
			"conditions": { "player": { "player": { "advancements": { "lits:technical/start_in_overworld": true }}, 
				"location": {
					"biome": "betterendforge:sulphur_springs"
				}}
			}
		},
		"betterendforge:umbra_valley": {
			"trigger": "minecraft:tick",
			"conditions": { "player": { "player": { "advancements": { "lits:technical/start_in_overworld": true }}, 
				"location": {
					"biome": "betterendforge:umbra_valley"
				}}
			}
		},
		"betterendforge:umbrella_jungle": {
			"trigger": "minecraft:tick",
			"conditions": { "player": { "player": { "advancements": { "lits:technical/start_in_overworld": true }}, 
				"location": {
					"biome": "betterendforge:umbrella_jungle"
				}}
			}
		}
	},
	"requirements": [
		[
			"betterendforge:amber_land",
			"betterendforge:blossoming_spires",
			"betterendforge:chorus_forest",
			"betterendforge:crystal_mountains",
			"betterendforge:dragon_graveyards",
			"betterendforge:dry_shrubland",
			"betterendforge:dust_wastelands",
			"betterendforge:empty_aurora_cave",
			"betterendforge:empty_end_cave",
			"betterendforge:empty_smaragdant_cave",
			"betterendforge:end_cave",
			"betterendforge:foggy_mushroomland",
			"betterendforge:glowing_grasslands",
			"betterendforge:ice_starfield",
			"betterendforge:jade_cave",
			"betterendforge:lantern_woods",
			"betterendforge:lush_aurora_cave",
			"betterendforge:lush_smaragdant_cave",
			"betterendforge:megalake",
			"betterendforge:megalake_grove",
			"betterendforge:neon_oasis",
			"betterendforge:painted_mountains",
			"betterendforge:shadow_forest",
			"betterendforge:sulphur_springs",
			"betterendforge:umbra_valley",
			"betterendforge:umbrella_jungle",
			"nether_from_end"
		]
	]
}
