{
	"parent": "lits:end/grinder",
	"display": {
		"icon": { "item": "thermal:xp_crystal" },
		"title": { "translate": "advancements.lits.end.xp_crystal.title" },
		"description": { "translate": "advancements.lits.end.xp_crystal.description" }
	},
	"criteria": {
		"crystal": {
			"trigger": "minecraft:inventory_changed",
			"conditions": {
				"items": [{
					"item": "thermal:xp_crystal"
				}]
			}
		}
	},
	"rewards": {
		"loot": [ "lits:modules" ]
	}
}
