{
  "portals": [
    {
      "dimension": "minecraft:overworld",
      "item": "draconicevolution:medium_chaos_frag",
      "colorRed": 0,
      "colorGreen": 0,
      "colorBlue": 0
    },
    {
      "dimension": "minecraft:the_nether",
      "item": "betterendforge:eternal_crystal",
      "colorRed": 255,
      "colorGreen": 255,
      "colorBlue": 255
    }
  ]
}
