{
	"type": "thermal:press",
	"ingredients": [
		{
			"item": "betterendforge:dragon_tree_sapling"
		}
	],
	"result": [
		{
			"item": "betterendforge:dragon_tree_leaves", 
			"count": 4
		}
	],
	"energy": 400
}
