{
	"type": "crafting_shaped",
	"pattern": [
		"cpc",
		"ppp",
		"cpc"
	],
	"key": {
		"p": { "tag": "lits_ender:planks/acacia_ish" },
		"c": { "tag": "forge:chests/wooden" }
	},
	"result": {
		"count": 4,
		"item": "storagedrawers:acacia_full_drawers_4"
	}
}
