{
	"type": "crafting_shaped",
	"pattern": [
		"p p",
		"php",
		"s s"
	],
	"key": {
		"p": { "tag": "lits_ender:planks/jungle_ish" },
		"s": { "item": "minecraft:stick" },
		"h": { "tag": "lits_ender:wooden_slabs/jungle_ish" }
	},
	"result": {
		"item": "exnihilosequentia:jungle_sieve"
	}
}
