{
	"values": [
		"morestoragedrawers:betterendforge_mossy_glowshroom_full_1",
		"morestoragedrawers:betterendforge_mossy_glowshroom_full_2",
		"morestoragedrawers:betterendforge_mossy_glowshroom_full_4",
		"morestoragedrawers:betterendforge_mossy_glowshroom_half_1",
		"morestoragedrawers:betterendforge_mossy_glowshroom_half_2",
		"morestoragedrawers:betterendforge_mossy_glowshroom_half_4",
		"morestoragedrawers:betterendforge_lacugrove_full_1",
		"morestoragedrawers:betterendforge_lacugrove_full_2",
		"morestoragedrawers:betterendforge_lacugrove_full_4",
		"morestoragedrawers:betterendforge_lacugrove_half_1",
		"morestoragedrawers:betterendforge_lacugrove_half_2",
		"morestoragedrawers:betterendforge_lacugrove_half_4",
		"morestoragedrawers:betterendforge_end_lotus_full_1",
		"morestoragedrawers:betterendforge_end_lotus_full_2",
		"morestoragedrawers:betterendforge_end_lotus_full_4",
		"morestoragedrawers:betterendforge_end_lotus_half_1",
		"morestoragedrawers:betterendforge_end_lotus_half_2",
		"morestoragedrawers:betterendforge_end_lotus_half_4",
		"morestoragedrawers:betterendforge_pythadendron_full_1",
		"morestoragedrawers:betterendforge_pythadendron_full_2",
		"morestoragedrawers:betterendforge_pythadendron_full_4",
		"morestoragedrawers:betterendforge_pythadendron_half_1",
		"morestoragedrawers:betterendforge_pythadendron_half_2",
		"morestoragedrawers:betterendforge_pythadendron_half_4",
		"morestoragedrawers:betterendforge_dragon_tree_full_1",
		"morestoragedrawers:betterendforge_dragon_tree_full_2",
		"morestoragedrawers:betterendforge_dragon_tree_full_4",
		"morestoragedrawers:betterendforge_dragon_tree_half_1",
		"morestoragedrawers:betterendforge_dragon_tree_half_2",
		"morestoragedrawers:betterendforge_dragon_tree_half_4",
		"morestoragedrawers:betterendforge_tenanea_full_1",
		"morestoragedrawers:betterendforge_tenanea_full_2",
		"morestoragedrawers:betterendforge_tenanea_full_4",
		"morestoragedrawers:betterendforge_tenanea_half_1",
		"morestoragedrawers:betterendforge_tenanea_half_2",
		"morestoragedrawers:betterendforge_tenanea_half_4",
		"morestoragedrawers:betterendforge_helix_tree_full_1",
		"morestoragedrawers:betterendforge_helix_tree_full_2",
		"morestoragedrawers:betterendforge_helix_tree_full_4",
		"morestoragedrawers:betterendforge_helix_tree_half_1",
		"morestoragedrawers:betterendforge_helix_tree_half_2",
		"morestoragedrawers:betterendforge_helix_tree_half_4",
		"morestoragedrawers:betterendforge_umbrella_tree_full_1",
		"morestoragedrawers:betterendforge_umbrella_tree_full_2",
		"morestoragedrawers:betterendforge_umbrella_tree_full_4",
		"morestoragedrawers:betterendforge_umbrella_tree_half_1",
		"morestoragedrawers:betterendforge_umbrella_tree_half_2",
		"morestoragedrawers:betterendforge_umbrella_tree_half_4",
		"morestoragedrawers:betterendforge_jellyshroom_full_1",
		"morestoragedrawers:betterendforge_jellyshroom_full_2",
		"morestoragedrawers:betterendforge_jellyshroom_full_4",
		"morestoragedrawers:betterendforge_jellyshroom_half_1",
		"morestoragedrawers:betterendforge_jellyshroom_half_2",
		"morestoragedrawers:betterendforge_jellyshroom_half_4",
		"morestoragedrawers:betterendforge_lucernia_full_1",
		"morestoragedrawers:betterendforge_lucernia_full_2",
		"morestoragedrawers:betterendforge_lucernia_full_4",
		"morestoragedrawers:betterendforge_lucernia_half_1",
		"morestoragedrawers:betterendforge_lucernia_half_2",
		"morestoragedrawers:betterendforge_lucernia_half_4"
	]
}
