{
	"type": "thermal:press",
	"ingredients": [
		{
			"item": "exnihilosequentia:piece_gold",
			"count": 4
		},
		{
			"item": "thermal:press_packing_2x2_die"
		}
	],
	"result": [
		{
			"item": "exnihilosequentia:chunk_gold"
		}
	],
	"energy": 400
}
