{
	"type": "exnihilosequentia:sieve",
	"rolls": [
		{
			"chance": 0.05,
			"mesh": "flint"
		},
		{
			"chance": 0.1,
			"mesh": "iron"
		},
		{
			"chance": 0.15,
			"mesh": "diamond"
		}
	],
	"input": {
		"item": "betterendforge:endstone_dust"
	},
	"result": {
		"item": "betterendforge:crystal_shards"
	}
}
