{
	"type": "exnihilosequentia:sieve",
	"rolls": [
		{
			"chance": 0.01,
			"mesh": "netherite"
		}
	],
	"input": {
		"item": "exnihilosequentia:dust"
	},
	"result": {
		"item": "draconicevolution:draconium_dust"
	}
}
