{
	"type": "exnihilosequentia:sieve",
	"rolls": [
		{
			"chance": 0.001,
			"mesh": "string"
		}
	],
	"input": {
		"item": "minecraft:dirt"
	},
	"result": {
		"item": "quark:pink_blossom_sapling"
	}
}
