{
	"parent": "lits:mid/energy_cell",
	"display": {
		"icon": { "item": "buildinggadgets:gadget_exchanging" },
		"title": { "translate": "advancements.lits.mid.building_gadgets.title" },
		"description": { "translate": "advancements.lits.mid.building_gadgets.description" }
	},
	"criteria": { 
		"building": {
			"trigger": "minecraft:inventory_changed",
			"conditions": {
				"items": [{
					"item": "buildinggadgets:gadget_building"
				}]
			}
		},
		"exchanging": {
			"trigger": "minecraft:inventory_changed",
			"conditions": {
				"items": [{
					"item": "buildinggadgets:gadget_exchanging"
				}]
			}
		}
	},
	"rewards": {
		"loot": [ "lits:block_satchels" ]
	}
}
