{
	"parent": "lits:mid/energy_cell",
	"display": {
		"icon": { "item": "exnihilosequentia:end_cake" },
		"title": { "translate": "advancements.lits.mid.end_cake.title" },
		"description": { "translate": "advancements.lits.mid.end_cake.description" },
		"frame": "goal"
	},
	"criteria": { "1": {
		"trigger": "minecraft:placed_block",
		"conditions": {
			"item": {
				"item": "exnihilosequentia:end_cake"
			}
		}
	}},
	"rewards": {
		"loot": [ "lits:block_satchels" ]
	}
}
