{
	"display": {
		"icon": { "item": "plaingrinder:handle" },
		"title": { "translate": "advancements.lits.grindstone.title" },
		"description": { "translate": "advancements.lits.grindstone.description" }
	},
	"criteria": {
		"grinder": {
			"trigger": "minecraft:inventory_changed",
			"conditions": {
				"items": [{
					"item": "plaingrinder:grinder"
				}]
			}
		},
		"handle": {
			"trigger": "minecraft:inventory_changed",
			"conditions": {
				"items": [{
					"item": "plaingrinder:handle"
				}]
			}
		}
	},
	"rewards": {
		"loot": [ "lits:block_satchels" ]
	},
	"parent": "lits:mid/root"
}
