{
	"parent": "lits:mid/iron_mesh",
	"display": {
		"icon": { "item": "quark:iron_rod" },
		"title": { "translate": "advancements.lits.mid.iron_rod.title" },
		"description": { 
			"translate": "advancements.lits.mid.iron_rod.description",
			"extra": [{
				"translate": "advancements.lits.mid.iron_rod.note",
				"color": "#777777"
			}]
		}
	},
	"criteria": { 
		"iron_rod": {
			"trigger": "minecraft:placed_block",
			"conditions": {
				"item": {
					"item": "quark:iron_rod"
				}
			}
		},
		"piston": {
			"trigger": "minecraft:placed_block",
			"conditions": {
				"item": {
					"item": "minecraft:sticky_piston"
				}
			}
		}
	},
	"rewards": {
		"loot": [ "lits:block_satchels" ]
	}
}
