{
	"display": {
		"icon": { "item": "thermal:machine_press" },
		"title": { "translate": "advancements.lits.mid.press.title" },
		"description": { 
			"translate": "advancements.lits.mid.press.description",
			"extra": [{
				"translate": "advancements.lits.mid.press.note",
				"color": "#777777"
			}]
		}
	},
	"criteria": {
		"die": {
			"trigger": "minecraft:inventory_changed",
			"conditions": {
				"items": [{
					"item": "thermal:press_packing_2x2_die"
				}]
			}
		},
		"press": {
			"trigger": "minecraft:placed_block",
			"conditions": {
				"item": {
					"item": "thermal:machine_press"
				}
			}
		}
	},
	"rewards": {
		"loot": [ "lits:block_satchels" ]
	},
	"parent": "lits:mid/click_machine"
}
