{
	"parent": "lits:mid/energy_cell",
	"display": {
		"icon": { "item": "theoneprobe:probe" },
		"title": { "translate": "advancements.lits.mid.probe.title" },
		"description": { "translate": "advancements.lits.mid.probe.description" }
	},
	"criteria": { 
		"probe": {
			"trigger": "minecraft:inventory_changed",
			"conditions": {
				"items": [{
					"item": "theoneprobe:probe"
				}]
			}
		}
	},
	"rewards": {
		"loot": [ "lits:block_satchels" ]
	}
}
