{
	"parent": "lits:mid/energy_cell",
	"display": {
		"icon": { "item": "refinedstorage:controller" },
		"title": { "translate": "advancements.lits.mid.rs_controller.title" },
		"description": { "translate": "advancements.lits.mid.rs_controller.description" },
		"frame": "goal"
	},
	"criteria": { "1": {
		"trigger": "minecraft:placed_block",
		"conditions": {
			"item": {
				"item": "refinedstorage:controller"
			}
		}
	}},
	"rewards": {
		"loot": [ "lits:block_satchels" ]
	}
}
