{
	"display": {
		"icon": { "item": "thermal:device_collector" },
		"title": { "translate": "advancements.lits.mid.vacuumulator.title" },
		"description": { "translate": "advancements.lits.mid.vacuumulator.description" }
	},
	"criteria": { 
		"vacuumulator": {
			"trigger": "minecraft:placed_block",
			"conditions": {
				"item": {
					"item": "thermal:device_collector"
				}
			}
		},
		"filter": {
			"trigger": "minecraft:inventory_changed",
			"conditions": {
				"items": [{
					"item": "thermal:item_filter_augment"
				}]
			}
		}
	},
	"rewards": {
		"loot": [ "lits:block_satchels" ]
	},
	"parent": "lits:mid/hopper_minecart"
}
