{
	"type": "thermal:insolator",
	"ingredient": {
		"item": "quark:dragon_scale"
	},
	"result": [
		{
			"item": "draconicevolution:dragon_heart",
			"count": 1
		},
		{
			"item": "minecraft:dragon_egg",
			"count": 1
		},
		{
			"item": "draconicevolution:draconium_dust",
			"chance": 64.0
		}
	],
	"water_mod": 2.0,
	"energy_mod": 100.0
}
