{
	"type": "thermal:bottler",
	"ingredients": [
		{
			"item": "simplyjetpacks:unit_glowstone_empty"
		},
		{
			"fluid": "thermal:glowstone",
			"amount": 1000
		}
	],
	"result": [
		{
			"item": "simplyjetpacks:unit_glowstone"
		}
	]
}
