{
	"display": {
		"icon": { "item": "minecraft:skeleton_skull" },
		"title": { "translate": "advancements.lits.die.title" },
		"description": { "translate": "advancements.lits.die.description" },
		"hidden": true
	},
	"criteria": {
		"death": {
			"trigger": "minecraft:tick",
			"conditions": {
				"player": {
					"player": { "stats": [
						{
							"type": "minecraft:custom",
							"stat": "minecraft:deaths",
							"value": {
								"min": 1
							}
						}
					]}
				}
			}
		}
	},
	"parent": "lits:tutorial/welcome"
}
