{
	"parent": "lits:tutorial/sieve",
	"display": {
		"icon": { "item": "minecraft:furnace" },
		"title": { "translate": "advancements.lits.tutorial.furnace.title" },
		"description": { 
			"translate": "advancements.lits.tutorial.furnace.description",
			"extra": [{
				"translate": "advancements.lits.tutorial.furnace.note",
				"color": "#777777"
			}]
		}
	},
	"criteria": { "1": {
		"trigger": "minecraft:placed_block",
		"conditions": {
			"item": {
				"item": "minecraft:furnace"
			}
		}
	}},
	"rewards": {
		"loot": [ "lits:ambience_records" ]
	}
}
