{
	"type": "crafting_shaped",
	"pattern": [
		"pcp",
		"ppp",
		"pcp"
	],
	"key": {
		"p": { "tag": "lits_ender:wooden_slabs/acacia_ish" },
		"c": { "tag": "forge:chests/wooden" }
	},
	"result": {
		"count": 2,
		"item": "storagedrawers:acacia_half_drawers_2"
	}
}
