{
	"type": "crafting_shaped",
	"pattern": [
		"ppp",
		" c ",
		"ppp"
	],
	"key": {
		"p": { "tag": "lits_ender:planks/birch_ish" },
		"c": { "tag": "forge:chests/wooden" }
	},
	"result": {
		"item": "storagedrawers:birch_full_drawers_1"
	}
}
