{
	"type": "crafting_shaped",
	"pattern": [
		"iGi",
		"gFg",
		"ici"
	],
	"key": {
		"i": {
			"tag": "forge:ingots/silver"
		},
		"c": {
			"item": "thermal:rf_coil"
		},
		"g": {
			"tag": "forge:glass"
		},
		"F": {
			"tag": "lits_ender:signs/crimson_ish"
		},
		"G": {
			"tag": "forge:gears/constantan"
		}
	},
	"result": {
		"item": "clickmachine:auto_clicker"
	}
}
