{
	"type": "thermal:refinery",
	"ingredient": {
		"fluid": "adpother:polluted_water_still",
		"amount": 200
	},
	"result": [
		{
			"fluid": "thermal:glowstone",
			"amount": 50
		},
		{
			"fluid": "thermal:light_oil",
			"amount": 100
		},
		{
			"item": "cofh_core:ectoplasm",
			"chance": 0.1
		}
	],
	"energy": 5000
}
