{
	"type": "crafting_shaped",
	"pattern": [
		"iri",
		"gDg",
		"ini"
	],
	"key": {
		"g": {
			"tag": "forge:dusts/glowstone"
		},
		"r": {
			"tag": "forge:dusts/redstone"
		},
		"n": {
			"tag": "forge:crops/nether_wart"
		},
		"D": {
			"item": "exnihilosequentia:doll_crafting"
		},
		"i": {
			"item": "quark:iron_rod"
		}
	},
	"result": {
		"item": "exnihilosequentia:doll_basalz"
	}
}
