{
	"type": "betterendforge:alloying",
	"ingredients": [
		{
			"item": "exnihilosequentia:crushed_end_stone"
		},
		{
			"item": "exnihilosequentia:crushed_end_stone"
		}
	],
	"result": {
		"item": "betterendforge:endstone_dust",
		"count": 2
	},
	"smelttime": 200
}
