{
	"type": "crafting_shaped",
	"pattern": [
		"sis",
		"bnr",
		"sis"
	],
	"key": {
		"s": { "tag": "forge:cobblestone" },
		"i": { "tag": "forge:ingots/iron" },
		"n": { "tag": "forge:ingots/nickel" },
		"b": { "tag": "forge:dyes/blue" },
		"r": { "tag": "forge:dusts/redstone" }
	},
	"result": {
		"item": "quark:magnet"
	}
}
