{
	"type": "crafting_shaped",
	"pattern": [
		"sss",
		"sOs",
		"sss"
	], "key": {
		"s": {
			"item": "minecraft:netherite_scrap"
		},
		"O": {
			"tag": "forge:obsidian"
		}
	}, "result": {
		"item": "minecraft:ancient_debris"
	}
}
