{
	"type": "thermal:centrifuge",
	"ingredient": {
		"item": "minecraft:wither_skeleton_skull"
	},
	"result": [
		{
			"item": "minecraft:coal",
			"chance": 0.8
		},
		{
			"item": "minecraft:bone",
			"count": 4
		},
		{
			"fluid": "cofh_core:experience",
			"amount": 2000
		}
	],
	"energy": 50000
}
