{
	"display": {
		"icon": { "item": "minecraft:coarse_dirt" },
		"title": { "translate": "advancements.lits.nature.coarse_dirt.title" },
		"description": { 
			"translate": "advancements.lits.nature.coarse_dirt.description"
		}
	},
	"criteria": { "1": {
		"trigger": "minecraft:item_used_on_block",
		"conditions": {
			"location": { "block": {
				"block": "minecraft:dirt"
			}},
			"item": {
				"tag": "lits:hoes"
			}
		}
	}},
	"parent": "lits:nature/seeds",
	"rewards": {
		"loot": [ "lits:cultivated_food" ]
	}
}
