{
	"parent": "lits:nature/pollution_breathe",
	"display": {
		"icon": { "item": "adchimneys:metal_vent" },
		"title": { "translate": "advancements.lits.nature.vent.title" },
		"description": { 
			"translate": "advancements.lits.nature.vent.description",
			"extra": [{
				"translate": "advancements.lits.nature.vent.note",
				"color": "#777777"
			}]
		}
	},
	"criteria": { "1": {
		"trigger": "minecraft:placed_block",
		"conditions": {
			"item": {
				"tag": "lits:vents"
			}
		}
	}},
	"rewards": {
		"loot": [ "lits:oil_satchels" ]
	}
}
